{
    "m_SelectedDeviceId": "192.168.100.12:5555",
    "m_SelectedPackage": {
        "deviceId": "192.168.100.12:5555",
        "name": "com.RasGames.ChainCubes",
        "processId": 20892,
        "exited": false
    },
    "m_SelectedPriority": 4,
    "m_KnownPackagesForSerialization": [
        {
            "deviceId": "RF8N71JLLAL",
            "name": "com.RasGames.ChainCubes",
            "processId": 20866,
            "exited": true
        },
        {
            "deviceId": "RF8N71JLLAL",
            "name": "com.RasGames.ChainCubes",
            "processId": 21907,
            "exited": true
        },
        {
            "deviceId": "RF8N71JLLAL",
            "name": "com.RasGames.ChainCubes",
            "processId": 23121,
            "exited": true
        },
        {
            "deviceId": "RF8N71JLLAL",
            "name": "com.RasGames.ChainCubes",
            "processId": 24903,
            "exited": true
        },
        {
            "deviceId": "RF8N71JLLAL",
            "name": "com.RasGames.ChainCubes",
            "processId": 26186,
            "exited": true
        },
        {
            "deviceId": "RF8N71JLLAL",
            "name": "com.sec.android.app.launcher",
            "processId": 5689,
            "exited": false
        },
        {
            "deviceId": "RF8N71JLLAL",
            "name": "com.RasGames.ChainCubes",
            "processId": 30576,
            "exited": false
        },
        {
            "deviceId": "RF8N71JLLAL",
            "name": "com.RasGames.ChainCubes",
            "processId": 30689,
            "exited": true
        },
        {
            "deviceId": "RF8N71JLLAL",
            "name": "com.RasGames.ChainCubes",
            "processId": 1494,
            "exited": false
        },
        {
            "deviceId": "RF8N71JLLAL",
            "name": "com.RasGames.ChainCubes",
            "processId": 7463,
            "exited": false
        },
        {
            "deviceId": "RF8N71JLLAL",
            "name": "com.RasGames.ChainCubes",
            "processId": 10104,
            "exited": false
        },
        {
            "deviceId": "RF8N71JLLAL",
            "name": "com.RasGames.ChainCubes",
            "processId": 11349,
            "exited": false
        },
        {
            "deviceId": "RF8N71JLLAL",
            "name": "com.RasGames.ChainCubes",
            "processId": 13118,
            "exited": false
        },
        {
            "deviceId": "RF8N71JLLAL",
            "name": "com.RasGames.ChainCubes",
            "processId": 14114,
            "exited": false
        },
        {
            "deviceId": "RF8N71JLLAL",
            "name": "com.RasGames.ChainCubes",
            "processId": 15556,
            "exited": false
        },
        {
            "deviceId": "192.168.100.12:5555",
            "name": "com.RasGames.ChainCubes",
            "processId": 20138,
            "exited": true
        },
        {
            "deviceId": "192.168.100.12:5555",
            "name": "com.RasGames.ChainCubes",
            "processId": 20689,
            "exited": true
        },
        {
            "deviceId": "192.168.100.12:5555",
            "name": "com.RasGames.ChainCubes",
            "processId": 21115,
            "exited": true
        },
        {
            "deviceId": "192.168.100.12:5555",
            "name": "com.RasGames.ChainCubes",
            "processId": 5580,
            "exited": true
        },
        {
            "deviceId": "192.168.100.12:5555",
            "name": "com.RasGames.ChainCubes",
            "processId": 7376,
            "exited": true
        },
        {
            "deviceId": "192.168.100.12:5555",
            "name": "com.sambazar",
            "processId": 7891,
            "exited": false
        },
        {
            "deviceId": "192.168.100.12:5555",
            "name": "com.RasGames.ChainCubes",
            "processId": 9837,
            "exited": true
        },
        {
            "deviceId": "192.168.100.12:5555",
            "name": "com.RasGames.ChainCubes",
            "processId": 10882,
            "exited": false
        },
        {
            "deviceId": "192.168.100.12:5555",
            "name": "com.RasGames.ChainCubes",
            "processId": 12920,
            "exited": false
        },
        {
            "deviceId": "192.168.100.12:5555",
            "name": "com.RasGames.ChainCubes",
            "processId": 17909,
            "exited": false
        },
        {
            "deviceId": "192.168.100.12:5555",
            "name": "com.RasGames.ChainCubes",
            "processId": 19232,
            "exited": false
        },
        {
            "deviceId": "192.168.100.12:5555",
            "name": "com.RasGames.ChainCubes",
            "processId": 20892,
            "exited": false
        }
    ],
    "m_Tags": {
        "m_Entries": [
            {
                "m_Name": "Filter by all listed tags",
                "m_Selected": false
            },
            {
                "m_Name": "No Filter",
                "m_Selected": true
            },
            {
                "m_Name": "",
                "m_Selected": false
            },
            {
                "m_Name": "Tag Control...",
                "m_Selected": false
            },
            {
                "m_Name": "",
                "m_Selected": false
            },
            {
                "m_Name": "Unity",
                "m_Selected": false
            },
            {
                "m_Name": "CRASH",
                "m_Selected": false
            }
        ]
    },
    "m_MemoryViewerState": {
        "MemoryWindowHeight": 300.0,
        "MemoryWindowWidth": 224.0,
        "MemoryTypeEnabled": [
            true,
            true,
            true,
            true,
            true,
            true,
            true,
            true,
            true,
            true
        ],
        "MemoryGroup": 0,
        "Behavior": 1
    },
    "m_Filter": "",
    "m_FilterIsRegularExpression": false,
    "m_SymbolPaths": []
}