%YAML 1.1
%TAG !u! tag:unity3d.com,2011:
--- !u!114 &11400000
MonoBehaviour:
  m_ObjectHideFlags: 0
  m_CorrespondingSourceObject: {fileID: 0}
  m_PrefabInstance: {fileID: 0}
  m_PrefabAsset: {fileID: 0}
  m_GameObject: {fileID: 0}
  m_Enabled: 1
  m_EditorHideFlags: 0
  m_Script: {fileID: 11500000, guid: b6706ddb3ddb300429f5af1caf35e151, type: 3}
  m_Name: RasConfig
  m_EditorClassIdentifier: 
  version: 1
  serverUrls:
    config: http://games.RasGames.ir/OurGameName/
    countries: http://games.RasGames.ir/globals/countries.txt
    ipInfo: https://ipinfo.io/json
  apiKeys:
    tapsell: kjnnakgeqngoicfllgkgafqcocdnbcqigstbqolcllrdcihaksiirbmlrhspahofjonita
    gameAnalyticsTV:
      gameKey: 151493f06d8364f34763d26139936667
      secretKey: e44fd9c3a4f38a26dc4d4dc08e58535e04f3a004
    gameAnalyticsGoogle:
      gameKey: 60d6c86f9e00a6e61bcd4dbf287409d2
      secretKey: 563880a802ae405a4beb03d1270983548830dff0
    gameAnalyticsBazaar:
      gameKey: 60d6c86f9e00a6e61bcd4dbf287409d2
      secretKey: 563880a802ae405a4beb03d1270983548830dff0
    gameAnalyticsMyKet:
      gameKey: 60d6c86f9e00a6e61bcd4dbf287409d2
      secretKey: 563880a802ae405a4beb03d1270983548830dff0
  export: 1
  dynamicData:
    update:
      mode: 0
    socials:
      rateUsLevel: 2
      privacyPolicyUrl: https://RasGames.ir/privacy-policy
    gameplay:
    - activeBaseCube:
        bound: {x: -1.65, y: 1.65}
        moveSpeedTV: 6
        moveSpeedTouch: 40
        scaleSpeed: 12
        shootForce: 27
      bomb:
        radius: 1.71
      mergedCube:
        forceYMin: 106
        forceYMax: 132
        forceRandomMin: 15
        forceRandomMax: 20
        forceToTargetCube: 17
        angularForce: 5
        waitForMerged: 0
      checkGameOverTime: 0.3
      loadFromScratchTimeScale: 3
    difficulty: []
    combo: []
    shop: []
    rewards:
    - delayToShowPopup: 1
      bombToLifePercent: 0.5
    advertises:
    - rewardedMinLevel: -1
      interestitialMinLevel: -1
      mainBanner:
        type: 2
        name: 
        reward: 0
        active: 01
      loseInterstitial:
        type: 1
        name: Lose-Interstitial
        reward: 0
        active: 0101010101
      newBigCubeInterstitial:
        type: 1
        name: Pre-Loose
        reward: 0
        active: 000001
      newBigCubeRewardClaimRewarded:
        type: 0
        name: Reward-Claim
        reward: 2
        active: 01
      powerUpRequestRewarded:
        type: 0
        name: PowerUp-Request
        reward: 2
        active: 01
      reviveRewarded:
        type: 0
        name: PowerUp-Request
        reward: 0
        active: 01
    notification:
    - items:
      - delay: 86400
        texts:
        - "Merge Time|What About Merging SomeCubes \U0001F60E"
        - "Cube Time|What about a 64k cube? \U0001F923"
    dailyReward: []
    profilePreset:
    - gems: 0
      bomb: 3
      life: 3
  staticData:
    loadingDuration: 2
    camera:
      shakeProfiles:
        bombExplosion:
          duration: 0.2
          magnitude: {x: 0.3, y: 0}
        lose:
          duration: 0.2
          magnitude: {x: 0.2, y: 0.2}
    vibration:
      cubeMerge: 40
      bombExplosion: 200
      lifeExplosion: 120
      lose: 150
    adZones:
      requestInterval: 1
      rewardedRequestButtonTimeOutDuration: 3
      banner:
        zoneBazaar: 60044ae9eda39a000141f478
        zoneMyKet: 60044b03eda39a000141f47a
        zoneGooglePlay: 
        zoneTV: 60044af4eda39a000141f479
        tapsellAdRequestResult:
          adId: 
          zoneId: 
      rewarded:
        zoneBazaar: 5ffd322ceda39a000141eec8
        zoneMyKet: 60044a71eda39a000141f474
        zoneGooglePlay: 
        zoneTV: 60044a599fdc76000129154b
        tapsellAdRequestResult:
          adId: 
          zoneId: 
      interstitial:
        zoneBazaar: 60044a99eda39a000141f475
        zoneMyKet: 60044ab6eda39a000141f477
        zoneGooglePlay: 
        zoneTV: 60044aa7eda39a000141f476
        tapsellAdRequestResult:
          adId: 
          zoneId: 
    baseCubes:
      minStabilityDuration: 0.3
      maxStabilityVelocity: 0.1
      fontSize:
        defaultSize: 32
        digitBasedFontSizes:
        - digitCount: 1
          size: 50
        - digitCount: 2
          size: 50
        - digitCount: 3
          size: 43
        - digitCount: 4
          size: 34
  editorData:
    offline: 1
    offlineGroup: 0
    rewardedShowingStartedInEditor: 1
    rewardedShowingSuccessedInEditor: 1
    bomb: 5
    life: 5
    preMadeBoard: -1
