%YAML 1.1
%TAG !u! tag:unity3d.com,2011:
--- !u!114 &11400000
MonoBehaviour:
  m_ObjectHideFlags: 0
  m_CorrespondingSourceObject: {fileID: 0}
  m_PrefabInstance: {fileID: 0}
  m_PrefabAsset: {fileID: 0}
  m_GameObject: {fileID: 0}
  m_Enabled: 1
  m_EditorHideFlags: 0
  m_Script: {fileID: 11500000, guid: c50a9729ac4b5de4dacc382db4c4ae50, type: 3}
  m_Name: RasFactory
  m_EditorClassIdentifier: 
  version: 1
  soundEffects:
    buttonClick: {fileID: 8300000, guid: c9010b87bdade164785ef979446e13c6, type: 3}
    start: {fileID: 8300000, guid: de007842201ab0747956c23b6752676d, type: 3}
    win: {fileID: 8300000, guid: 3910e6cb5985d9442a7942dfb4512ce1, type: 3}
    lose: {fileID: 8300000, guid: 34c47c4cc6baf3644b529c97a995e301, type: 3}
    win2: {fileID: 8300000, guid: 1e20e7695e070a14c9c0a30d5c66edf2, type: 3}
    shoot: {fileID: 8300000, guid: d40e462141c05714da41d473b093233f, type: 3}
    baseCubeMerge: {fileID: 8300000, guid: 58a20f2ed5feab743a126ff59e231e50, type: 3}
    bigBaseCubeMerge: {fileID: 8300000, guid: fcf07e0dc2c606a4a9468f3c73ef10e8, type: 3}
    newBigCubePopup: {fileID: 8300000, guid: 4c1e88b35d1463e49895276d2d317997, type: 3}
    useBomb: {fileID: 8300000, guid: 79555c1f93cf7c7438e465ba68392579, type: 3}
    useLife: {fileID: 8300000, guid: 79555c1f93cf7c7438e465ba68392579, type: 3}
    bombExplosion: {fileID: 8300000, guid: ecabc0ff74924414f9456f4d8bc2eb78, type: 3}
    lifeExplosion: {fileID: 8300000, guid: d0657a31f34ab2f499638cb5f62aada3, type: 3}
    shakePlayButton: {fileID: 8300000, guid: 7b458fef6a52aaa48ad75873a1107382, type: 3}
    rewardClaimSuccess: {fileID: 8300000, guid: 260a9ce34e0c70b468969a90899f198c, type: 3}
    powerUpRequestSuccess: {fileID: 8300000, guid: 260a9ce34e0c70b468969a90899f198c, type: 3}
    levelStartBounce: {fileID: 0}
    buttonHover: {fileID: 8300000, guid: 9321a17ae97dabf4f86dbe423ce5ccd5, type: 3}
  baseCubeProperties:
    materials:
    - {fileID: 2100000, guid: a9d8bd6427aef104abb53577491d6c71, type: 2}
    - {fileID: 2100000, guid: 3a69ea9500288a04396c10e398ec8918, type: 2}
    - {fileID: 2100000, guid: 2dd271f31e4cba24abf188e6efa78de5, type: 2}
    - {fileID: 2100000, guid: 531ce85569651944b92f38e8df9b1daf, type: 2}
    - {fileID: 2100000, guid: 74947f085678eed49a6d4dcafeb60ab8, type: 2}
    - {fileID: 2100000, guid: 200b4fe7b4c59f544a79223f4bf6e46f, type: 2}
    - {fileID: 2100000, guid: 60855e5b51e2e5844b5b351f3da8c519, type: 2}
    - {fileID: 2100000, guid: 7157cebc1a9d4ad4c86fbadcded0f814, type: 2}
    - {fileID: 2100000, guid: 7f52dc4925d50ae4eb4c13513d2834cd, type: 2}
    - {fileID: 2100000, guid: e6733055ddb31ba439f3666509ce3c02, type: 2}
    - {fileID: 2100000, guid: cc2470d3b2febde468399a3c03cf435b, type: 2}
    - {fileID: 2100000, guid: 49caaf8863ca5584586a6e9bbde17b31, type: 2}
    - {fileID: 2100000, guid: 3c159dcd1754215459f175a58293cda5, type: 2}
    - {fileID: 2100000, guid: 2181044216d490d4fa3734fd15d6a305, type: 2}
    - {fileID: 2100000, guid: c153ed7edf9690f418f433c7dece0f4c, type: 2}
    - {fileID: 2100000, guid: 93b7ff7d0a6f745459f836a6cacc4a30, type: 2}
    - {fileID: 2100000, guid: 877b76fa8db4b66418e51ea07971f2d0, type: 2}
    - {fileID: 2100000, guid: 264e49427cfcf124c96559ea1fd75d96, type: 2}
    - {fileID: 2100000, guid: 33ec7b734e2abb44783fb576279e8444, type: 2}
    - {fileID: 2100000, guid: 1ebf3a743d037764d903a02e79ac65c0, type: 2}
    - {fileID: 2100000, guid: e316e8ece41d2b94888887bd51677da8, type: 2}
    - {fileID: 2100000, guid: 65b97730ca11dd045bac69a2fa2c46ac, type: 2}
    - {fileID: 2100000, guid: ab8a0671378c655409c2eedc8cc24e53, type: 2}
    - {fileID: 2100000, guid: 5821b75ae14441e43aad73cf14a66d83, type: 2}
    - {fileID: 2100000, guid: 73cb79b7b3019f244994ad8092221b1a, type: 2}
    - {fileID: 2100000, guid: 96770aacf11be9d4b8ddb843423ca4c8, type: 2}
    - {fileID: 2100000, guid: ba5737dcdc5407c42882a300c6063383, type: 2}
    - {fileID: 2100000, guid: 2adeb992c68ae1345a231b769fc7ef0a, type: 2}
    - {fileID: 2100000, guid: ad02fde91e6e272479dad68edd58f2e3, type: 2}
    - {fileID: 2100000, guid: f6cb2cc06b522ad4f9503027beb6b5eb, type: 2}
    - {fileID: 2100000, guid: 0d36600db138524458f298e15c9a83b9, type: 2}
    - {fileID: 2100000, guid: 02f298b207c5b6447ab9a8ed0655732d, type: 2}
    - {fileID: 2100000, guid: 6ae2e1d8f71c6fe4eabdbd375ae1490a, type: 2}
    - {fileID: 2100000, guid: 97bbff33aa81f8c479534a7e466c7d5c, type: 2}
    - {fileID: 2100000, guid: 779a580681a31f240adb114a096f697d, type: 2}
    - {fileID: 2100000, guid: 81df8880eced4054bbea4eb14473d005, type: 2}
    - {fileID: 2100000, guid: 5504510529e11d04081f5b6ba7d87458, type: 2}
    - {fileID: 2100000, guid: b777b3a9e60e713489b8f474371c5ad3, type: 2}
    - {fileID: 2100000, guid: ec58e369eafbbc741aeb1748418b1b09, type: 2}
    - {fileID: 2100000, guid: b2a159e777878eb40aeb1b6efc2bde4c, type: 2}
    - {fileID: 2100000, guid: 66ec74c8fe109e340975a8b61f84ef4b, type: 2}
    - {fileID: 2100000, guid: aff7450578aacd84f8b00a00aedeccfb, type: 2}
    - {fileID: 2100000, guid: f3e1cc53a498d23488094b2f4cc84eb2, type: 2}
    - {fileID: 2100000, guid: 2ff8329f3735d8b449ee4dd3684bd94b, type: 2}
    - {fileID: 2100000, guid: 67d56460a75494441bb2f27634312787, type: 2}
    - {fileID: 2100000, guid: 975ef2bcd91ddfd48a437bd77ac2941b, type: 2}
    - {fileID: 2100000, guid: e0a9f76442c8fc54db503fe8e1b55c55, type: 2}
    - {fileID: 2100000, guid: 85f767cbbee62c74baa6b6a1a7349406, type: 2}
    - {fileID: 2100000, guid: 5df37380991f32f489f37d7f1a164398, type: 2}
    - {fileID: 2100000, guid: 72fe2c3375302ec4c9079040868c98f5, type: 2}
    - {fileID: 2100000, guid: d8a1146f428bf354f868ed8fcd43da21, type: 2}
    - {fileID: 2100000, guid: 4da5d8b3d9847f743bc2285119a69de5, type: 2}
    - {fileID: 2100000, guid: f07083c6834687a4b8111fb853279fe0, type: 2}
    randomColorMaterial: {fileID: 2100000, guid: 8a8c4ed9a51dbb842b8e259b1e73421a, type: 2}
    bouncyPhysicMaterial: {fileID: 13400000, guid: 5f3c22e4532aa354e98ce9f40c2a253e, type: 2}
    normalPhysicMaterial: {fileID: 13400000, guid: ff923ec3449353b4f825e51c791742f2, type: 2}
