%YAML 1.1
%TAG !u! tag:unity3d.com,2011:
--- !u!114 &11400000
MonoBehaviour:
  m_ObjectHideFlags: 0
  m_CorrespondingSourceObject: {fileID: 0}
  m_PrefabInstance: {fileID: 0}
  m_PrefabAsset: {fileID: 0}
  m_GameObject: {fileID: 0}
  m_Enabled: 1
  m_EditorHideFlags: 0
  m_Script: {fileID: 11500000, guid: 966914a83890eee4d819c5e70dd9f169, type: 3}
  m_Name: ResourceEx
  m_EditorClassIdentifier: 
  version: 1
  justFilesWithId: 1
  files:
  - path: Resources/Prefabs/Boards/0
    dire: Resources/Prefabs/Boards/
    name: 0
    tags: []
    ids: 00000000
  - path: Resources/Prefabs/Boards/1
    dire: Resources/Prefabs/Boards/
    name: 1
    tags: []
    ids: 01000000
  - path: Resources/Prefabs/Boards/2
    dire: Resources/Prefabs/Boards/
    name: 2
    tags: []
    ids: 02000000
  - path: Resources/Prefabs/Boards/3
    dire: Resources/Prefabs/Boards/
    name: 3
    tags: []
    ids: 03000000
  - path: Resources/Prefabs/Boards/4
    dire: Resources/Prefabs/Boards/
    name: 4
    tags: []
    ids: 04000000
  - path: Resources/Prefabs/Boards/5
    dire: Resources/Prefabs/Boards/
    name: 5
    tags: []
    ids: 05000000
  - path: Resources/Prefabs/Boards/6
    dire: Resources/Prefabs/Boards/
    name: 6
    tags: []
    ids: 06000000
  - path: Resources/Prefabs/Boards/7
    dire: Resources/Prefabs/Boards/
    name: 7
    tags: []
    ids: 07000000
